…
<img src="p8105_hw6_jf3354_files/figure-gfm/unnamed-chunk-4-2.png" width="90%" />

``` r
#Make this comparison in terms of the cross-validated prediction error; use crossv_mc and functions in purrr as appropriate.
cv_df =
  crossv_mc(bw, 100)

cv_df %>% pull(train) %>% .[[1]] %>% as_tibble
```

    ## # A tibble: 3,473 × 20
    ##    babysex bhead blength   bwt delwt fincome frace gaweeks malform menarche
    ##    <fct>   <dbl>   <dbl> <dbl> <dbl>   <dbl> <fct>   <dbl> <fct>      <dbl>
    ##  1 1          34      48  3062   156      65 2        25.9 0             14
    ##  2 2          36      50  3345   148      85 1        39.9 0             12
    ##  3 2          34      52  3374   156       5 1        41.6 0             13
    ##  4 2          33      46  2523   126      96 2        40.3 0             14
    ##  5 2          33      49  2778   140       5 1        37.4 0             12
    ##  6 1          36      52  3515   146      85 1        40.3 0             11
    ##  7 1          33      50  3459   169      75 2        40.7 0             12
    ##  8 1          35      51  3459   146      55 1        39.4 0             12
    ##  9 1          36      53  3629   147      75 1        41.3 0             11
    ## 10 1          35      51  3544   129      65 1        39.6 0             12
    ## # … with 3,463 more rows, and 10 more variables: mheight <dbl>, momage <dbl>,
    ## #   mrace <fct>, parity <dbl>, pnumlbw <dbl>, pnumsga <dbl>, ppbmi <dbl>,
    ## #   ppwt <dbl>, smoken <dbl>, wtgain <dbl>

``` r
cv_df %>% pull(test) %>% .[[1]] %>% as_tibble
```

    ## # A tibble: 869 × 20
    ##    babysex bhead blength   bwt delwt fincome frace gaweeks malform menarche
    ##    <fct>   <dbl>   <dbl> <dbl> <dbl>   <dbl> <fct>   <dbl> <fct>      <dbl>
    ##  1 2          34      51  3629   177      35 1        39.9 0             13
    ##  2 1          34      52  3062   157      55 1        40   0             14
    ##  3 1          33      52  3374   129      55 1        40.7 0             12
    ##  4 2          35      51  3317   130      55 1        43.4 0             13
    ##  5 2          35      48  3175   158      75 1        39.7 0             13
    ##  6 1          35      56  3232   147      55 1        42.1 0             13
    ##  7 2          35      51  3827   130      45 1        41.3 0             12
    ##  8 2          34      51  3232   155      55 1        41.6 0             15
    ##  9 2          34      51  3175   142      96 1        42.3 0             17
    ## 10 1          33      51  3345   140      85 1        38.6 0             13
    ## # … with 859 more rows, and 10 more variables: mheight <dbl>, momage <dbl>,
    ## #   mrace <fct>, parity <dbl>, pnumlbw <dbl>, pnumsga <dbl>, ppbmi <dbl>,
    ## #   ppwt <dbl>, smoken <dbl>, wtgain <dbl>
…
